Trabalho Final - Elementos de Programação para Estatística
…
# Exibe o resultado da análise
print(analise_por_pais)

# A tibble: 42 × 5
   country_padrao contagem_receitas media_rating desvio_padrao_rating
   <chr>                      <int>        <dbl>                <dbl>
 1 French                        62         4.69                0.238
 2 Greek                         57         4.68                0.221
 3 Italian                       57         4.65                0.373
 4 Puerto Rican                  59         4.61                0.458
 5 Korean                        55         4.60                0.294
 6 Persian                       38         4.60                0.384
 7 Israeli/Jewish                60         4.59                0.266
 8 Chinese                       64         4.58                0.272
 9 Russian                       65         4.57                0.270
10 US American                  282         4.55                0.354
# ℹ 32 more rows
# ℹ 1 more variable: media_porcoes <dbl>
…
